18台新节点 TaiShan2280 V2


10管理节点
CPU Kunpeng920 64c 2.6ghz *2
内存 32GB*24
硬盘 960GB SSD*2
    4T SATA*2
    3.2T NVMe*1
网卡 4端口10/25GE *2
电源 900W AC*2
光模块 10G多模2个

2网络节点
CPU Kunpeng920 64c 2.6ghz *2
内存 32GB*16
硬盘 480GB SSD*2
网卡 4端口10/25GE *2
电源 900W AC*2
光模块 10G多模6个

3块存储节点
CPU Kunpeng920 64c 2.6ghz *2
内存 16GB*10
硬盘 8TB SATA*12
    600G SAS*2
    1.6TB NVMe*3
网卡 4端口10/25GE *2
电源 2000W AC*2
光模块 10G多模8个

3对象存储节点
CPU Kunpeng920 64c 2.6ghz *2
内存 16GB*6
硬盘 10TB SATA*12
    600G SAS*2
    1.6TB NVMe*2
网卡 4端口10/25GE *2
电源 2000W AC*2
光模块 10G多模4个


2防火墙
USG6635E
16*GE RJ45
12*10GE SFP+
2*40GE QSFP+
32G内存
2交流电源

原来计算12台2280，交换机6台，2台存储2台管理2台业务